simulation/qsim/alarma.msim.vcd
$comment
	File created using the following command:
		vcd file alarma.msim.vcd -direction
$end
$date
	Thu Mar 27 23:24:17 2025
$end
$version
	ModelSim Version 10.1d
$end
$timescale
	1ps
$end
$scope module alarma_vlg_vec_tst $end
$var reg 1 ! alarma_personas $end
$var reg 1 " alarma_puerta $end
$var reg 1 # clk $end
$var reg 1 $ falla_energia $end
$var reg 1 % reset $end
$var wire 1 & alarma_sonora $end
$var wire 1 ' alarma_visual $end
$var wire 1 ( sampler $end
$scope module i1 $end
$var wire 1 ) gnd $end
$var wire 1 * vcc $end
$var wire 1 + unknown $end
$var tri1 1 , devclrn $end
$var tri1 1 - devpor $end
$var tri1 1 . devoe $end
$var wire 1 / alarma_sonora~output_o $end
$var wire 1 0 alarma_visual~output_o $end
$var wire 1 1 clk~input_o $end
$var wire 1 2 clk~inputclkctrl_outclk $end
$var wire 1 3 contador[0]~16_combout $end
$var wire 1 4 reset~input_o $end
$var wire 1 5 reset~inputclkctrl_outclk $end
$var wire 1 6 alarma_puerta~input_o $end
$var wire 1 7 alarma_personas~input_o $end
$var wire 1 8 falla_energia~input_o $end
$var wire 1 9 process_0~0_combout $end
$var wire 1 : alarma_activa~q $end
$var wire 1 ; contador[0]~17 $end
$var wire 1 < contador[1]~18_combout $end
$var wire 1 = contador[1]~19 $end
$var wire 1 > contador[2]~20_combout $end
$var wire 1 ? contador[2]~21 $end
$var wire 1 @ contador[3]~22_combout $end
$var wire 1 A contador[3]~23 $end
$var wire 1 B contador[4]~24_combout $end
$var wire 1 C contador[4]~25 $end
$var wire 1 D contador[5]~26_combout $end
$var wire 1 E contador[5]~27 $end
$var wire 1 F contador[6]~28_combout $end
$var wire 1 G contador[6]~29 $end
$var wire 1 H contador[7]~30_combout $end
$var wire 1 I contador[7]~31 $end
$var wire 1 J contador[8]~32_combout $end
$var wire 1 K contador[8]~33 $end
$var wire 1 L contador[9]~34_combout $end
$var wire 1 M contador[9]~35 $end
$var wire 1 N contador[10]~36_combout $end
$var wire 1 O contador[10]~37 $end
$var wire 1 P contador[11]~38_combout $end
$var wire 1 Q contador[11]~39 $end
$var wire 1 R contador[12]~40_combout $end
$var wire 1 S contador[12]~41 $end
$var wire 1 T contador[13]~42_combout $end
$var wire 1 U contador[13]~43 $end
$var wire 1 V contador[14]~44_combout $end
$var wire 1 W contador[14]~45 $end
$var wire 1 X contador[15]~46_combout $end
$var wire 1 Y LessThan0~2_combout $end
$var wire 1 Z LessThan0~0_combout $end
$var wire 1 [ LessThan0~1_combout $end
$var wire 1 \ LessThan0~3_combout $end
$var wire 1 ] buzzer_clk~0_combout $end
$var wire 1 ^ buzzer_clk~q $end
$var wire 1 _ alarma_sonora~0_combout $end
$var wire 1 ` contador [15] $end
$var wire 1 a contador [14] $end
$var wire 1 b contador [13] $end
$var wire 1 c contador [12] $end
$var wire 1 d contador [11] $end
$var wire 1 e contador [10] $end
$var wire 1 f contador [9] $end
$var wire 1 g contador [8] $end
$var wire 1 h contador [7] $end
$var wire 1 i contador [6] $end
$var wire 1 j contador [5] $end
$var wire 1 k contador [4] $end
$var wire 1 l contador [3] $end
$var wire 1 m contador [2] $end
$var wire 1 n contador [1] $end
$var wire 1 o contador [0] $end
$upscope $end
$upscope $end
$enddefinitions $end
#0
$dumpvars
0!
0"
0#
0$
0%
0&
0'
x(
0)
1*
x+
1,
1-
1.
0/
00
01
02
13
04
05
06
07
08
09
0:
0;
0<
1=
0>
0?
0@
1A
0B
0C
0D
1E
0F
0G
0H
1I
0J
0K
0L
1M
0N
0O
0P
1Q
0R
0S
0T
1U
0V
0W
0X
1Y
1Z
1[
1\
0]
0^
0_
0o
0n
0m
0l
0k
0j
0i
0h
0g
0f
0e
0d
0c
0b
0a
0`
$end
#10000
1#
11
12
0(
#20000
1%
0#
14
01
15
02
1(
#30000
1#
11
12
0(
#40000
1"
0%
0#
16
04
01
05
02
1(
19
#50000
1#
11
12
0(
1:
10
1'
1_
1/
1&
#60000
0#
01
02
1(
#70000
1#
11
12
0(
1o
1;
03
1<
#80000
0"
0#
06
01
02
1(
09
#90000
1#
11
12
0(
1n
0o
0:
0=
0<
0;
13
00
0'
0_
1>
1=
1<
0/
0&
0>
#100000
0#
01
02
1(
#110000
1#
11
12
0(
#120000
1!
0#
17
01
02
1(
19
#130000
1#
11
12
0(
1:
10
1'
1_
1/
1&
#140000
0#
01
02
1(
#150000
1#
11
12
0(
1o
1;
03
0=
0<
1>
#160000
0!
0#
07
01
02
1(
09
#170000
1#
11
12
0(
1m
0n
0o
0:
1?
0>
1=
1<
0;
13
00
0'
0_
1@
0?
1>
0<
0/
0&
0@
#180000
0#
01
02
1(
#190000
1#
11
12
0(
#200000
1$
0#
18
01
02
1(
19
#210000
1#
11
12
0(
1:
10
1'
1_
1/
1&
#220000
0#
01
02
1(
#230000
1#
11
12
0(
1o
1;
03
1<
#240000
0$
0#
08
01
02
1(
09
#250000
1#
11
12
0(
1n
0o
0:
0=
0<
0;
13
00
0'
0_
1?
0>
1=
1<
0/
0&
1@
0?
1>
0@
#260000
0#
01
02
1(
#270000
1#
11
12
0(
#280000
0#
01
02
1(
#290000
1#
11
12
0(
#300000
0#
01
02
1(
#310000
1#
11
12
0(
#320000
0#
01
02
1(
#330000
1#
11
12
0(
#340000
0#
01
02
1(
#350000
1#
11
12
0(
#360000
0#
01
02
1(
#370000
1#
11
12
0(
#380000
0#
01
02
1(
#390000
1#
11
12
0(
#400000
0#
01
02
1(
#410000
1#
11
12
0(
#420000
0#
01
02
1(
#430000
1#
11
12
0(
#440000
0#
01
02
1(
#450000
1#
11
12
0(
#460000
0#
01
02
1(
#470000
1#
11
12
0(
#480000
0#
01
02
1(
#490000
1#
11
12
0(
#500000
0#
01
02
1(
#510000
1#
11
12
0(
#520000
0#
01
02
1(
#530000
1#
11
12
0(
#540000
0#
01
02
1(
#550000
1#
11
12
0(
#560000
0#
01
02
1(
#570000
1#
11
12
0(
#580000
0#
01
02
1(
#590000
1#
11
12
0(
#600000
0#
01
02
1(
#610000
1#
11
12
0(
#620000
0#
01
02
1(
#630000
1#
11
12
0(
#640000
0#
01
02
1(
#650000
1#
11
12
0(
#660000
0#
01
02
1(
#670000
1#
11
12
0(
#680000
0#
01
02
1(
#690000
1#
11
12
0(
#700000
0#
01
02
1(
#710000
1#
11
12
0(
#720000
0#
01
02
1(
#730000
1#
11
12
0(
#740000
0#
01
02
1(
#750000
1#
11
12
0(
#760000
0#
01
02
1(
#770000
1#
11
12
0(
#780000
0#
01
02
1(
#790000
1#
11
12
0(
#800000
0#
01
02
1(
#810000
1#
11
12
0(
#820000
0#
01
02
1(
#830000
1#
11
12
0(
#840000
0#
01
02
1(
#850000
1#
11
12
0(
#860000
0#
01
02
1(
#870000
1#
11
12
0(
#880000
0#
01
02
1(
#890000
1#
11
12
0(
#900000
0#
01
02
1(
#910000
1#
11
12
0(
#920000
0#
01
02
1(
#930000
1#
11
12
0(
#940000
0#
01
02
1(
#950000
1#
11
12
0(
#960000
0#
01
02
1(
#970000
1#
11
12
0(
#980000
0#
01
02
1(
#990000
1#
11
12
0(
